<svg width="16" height="16" viewBox="0 0 16 16" fill="none" xmlns="http://www.w3.org/2000/svg">
<g clip-path="url(#clip0)">
<path d="M8.00002 8.47273C9.98119 8.47273 11.5874 6.5928 11.5874 4.2738C11.5874 1.058 9.98127 0.0749207 8.00002 0.0749207C6.01869 0.0749207 4.41261 1.058 4.41261 4.2738C4.41265 6.5928 6.01873 8.47273 8.00002 8.47273Z" fill="#CED9E9"/>
<path d="M15.9217 14.653L14.1119 10.5759C14.0291 10.3893 13.8836 10.2346 13.7026 10.1403L10.8938 8.67814C10.8318 8.64596 10.7568 8.65222 10.7012 8.69437C9.90672 9.29525 8.97265 9.61285 8.00001 9.61285C7.02722 9.61285 6.09322 9.29525 5.29878 8.69437C5.24294 8.65222 5.16794 8.64596 5.106 8.67814L2.29735 10.1403C2.11626 10.2346 1.97099 10.3892 1.88813 10.5759L0.0782398 14.653C-0.0465411 14.9341 -0.0209671 15.2557 0.146672 15.5135C0.314233 15.7712 0.597815 15.9251 0.90529 15.9251H15.0946C15.4021 15.9251 15.6858 15.7712 15.8533 15.5134C16.0209 15.2557 16.0465 14.9339 15.9217 14.653Z" fill="#CED9E9"/>
</g>
<defs>
<clipPath id="clip0">
<rect width="16" height="16" fill="white"/>
</clipPath>
</defs>
</svg>
