<svg width="45" height="47" viewBox="0 0 45 47" fill="none" xmlns="http://www.w3.org/2000/svg">
<path d="M32.9288 35.033L30.4829 29.9734V24.4355H22.9384V29.9734L20.4926 35.033H32.9288Z" fill="#C27669"/>
<path d="M27.7666 24.4355V35.033H32.9288L30.4829 29.9734V24.4355H27.7666Z" fill="#A44F3E"/>
<path d="M34.2128 17.2678H33.7339V15.2766C33.7339 13.2944 32.9549 11.3738 31.5167 10.0804C30.3892 9.06636 28.8041 8.18139 26.7108 8.157C24.6173 8.18139 23.0321 9.06636 21.9047 10.0804C20.4665 11.3738 19.6875 13.2944 19.6875 15.2766V17.2678H19.2086C18.5068 17.2678 17.9376 17.862 17.9376 18.5953V20.0666C17.9376 20.7999 18.5068 21.394 19.2086 21.394H19.6896C19.729 23.3207 20.5043 25.1753 21.9047 26.435C23.0321 27.4487 24.6173 28.3337 26.7108 28.3584C28.8044 28.3337 30.3892 27.4487 31.5167 26.435C32.9171 25.1753 33.6923 23.3207 33.7318 21.394H34.2128C34.9146 21.394 35.4838 20.7999 35.4838 20.0666V18.5953C35.4838 17.862 34.9146 17.2678 34.2128 17.2678V17.2678Z" fill="#C27669"/>
<path d="M34.2128 17.2678H33.7339V15.2766C33.7339 13.2944 32.9549 11.3738 31.5167 10.0804C31.3323 9.91476 31.1349 9.75304 30.9258 9.59777L30.9251 22.5809C30.8857 24.5076 30.1104 26.3622 28.71 27.6219C28.4714 27.8363 28.2112 28.0439 27.9314 28.2397C29.4327 27.9647 30.6199 27.2414 31.5167 26.4346C32.9171 25.1753 33.6923 23.3207 33.7318 21.394H34.2128C34.9145 21.394 35.4838 20.7995 35.4838 20.0666V18.5953C35.4838 17.862 34.9145 17.2678 34.2128 17.2678V17.2678Z" fill="#A44F3E"/>
<path d="M27.0782 5.94168H26.3432C21.8752 5.94168 18.2531 9.72436 18.2531 14.3909V16.8236H35.1683V14.3909C35.1683 9.72436 31.5462 5.94168 27.0782 5.94168V5.94168Z" fill="#FF9838"/>
<path d="M27.0782 5.94168H26.3432C25.9988 5.94168 25.6599 5.96499 25.3269 6.00874C29.3108 6.53514 32.3915 10.0872 32.3915 14.3909V16.8236H35.1683V14.3909C35.1683 9.72436 31.5462 5.94168 27.0782 5.94168V5.94168Z" fill="#FF8709"/>
<path d="M35.4278 18.0589H17.9936C17.3467 18.0589 16.8225 17.5113 16.8225 16.8357C16.8225 16.1605 17.3467 15.6126 17.9936 15.6126H35.4278C36.0746 15.6126 36.5989 16.1605 36.5989 16.8357C36.5986 17.5113 36.0746 18.0589 35.4278 18.0589Z" fill="#FF8709"/>
<path d="M38.3507 31.7092L30.5658 30C30.5658 32.2472 26.9626 34.0685 26.9626 34.0685C26.9626 34.0685 23 32.2472 23 30L15.5742 31.7092C12.6345 32.6863 11 33.7958 11 37.2556L12.9104 40.3533C12.9104 41.5971 17.0626 45 18.1642 45L37.2687 43.9674C38.3702 43.9674 41.0896 41.5971 41.0896 40.3533L43 37.7719C43 34.3121 41.2904 32.6863 38.3507 31.7092Z" fill="#DEECF1"/>
<path d="M22.9384 29.9734L19.8842 30.5938C20.0658 32.3612 21.5679 33.9598 23.1166 35.1617C23.5506 35.4984 24.1373 35.5246 24.6008 35.2345L26.7105 33.9135C26.7105 33.9135 22.9384 32.1493 22.9384 29.9734Z" fill="#8EBAC5"/>
<path d="M30.4829 29.9734C30.4829 32.1497 26.7105 33.9135 26.7105 33.9135L28.8202 35.2345C29.2837 35.525 29.8704 35.4985 30.3044 35.1617C31.8531 33.9598 33.3552 32.3612 33.5368 30.5938L30.4829 29.9734Z" fill="#8EBAC5"/>
<path d="M13.6622 32.0302L14.1168 33.6177C14.8583 36.2859 15.235 39.0505 15.235 41.8288L16.5 44.5L23 46.9999H26.7109C26.7109 46.9999 26.7109 44.5351 26.7105 42.7174C26.7105 41.514 26.3552 40.3407 25.6922 39.3564C23.7892 36.5315 19.8842 30.5938 19.8842 30.5938L15.5151 31.4813C14.8834 31.6093 14.2623 31.7896 13.6622 32.0302Z" fill="#FF9838"/>
<path d="M39.7592 32.0302L39.3046 33.6177C38.5627 36.2859 38.1864 39.0505 38.1864 41.8288L37.9063 43.5L33 46.5L26.7105 46.9999C26.7105 46.9999 26.7105 44.5351 26.7109 42.7174C26.7109 41.514 27.0662 40.3407 27.7291 39.3564C29.6322 36.5315 33.5371 30.5938 33.5371 30.5938L37.9063 31.4813C38.5376 31.6093 39.159 31.7896 39.7592 32.0302Z" fill="#FF8709"/>
<path d="M34.4061 43.4496H30.4125C30.1461 43.4496 29.9305 43.2241 29.9305 42.9462V41.5251C29.9305 41.2468 30.1461 41.0213 30.4125 41.0213H34.4061C34.6725 41.0213 34.8884 41.2468 34.8884 41.5251V42.9462C34.8884 43.2241 34.6725 43.4496 34.4061 43.4496V43.4496Z" fill="#1356BA"/>
</svg>
