<svg width="32" height="32" viewBox="0 0 32 32" fill="none" xmlns="http://www.w3.org/2000/svg">
<g opacity="0.8" clip-path="url(#clip0)">
<path d="M16.0006 0C7.16439 0 0.00100708 7.16359 0.00100708 15.9998C0.00100708 24.8359 7.16439 32 16.0006 32C24.8369 32 32.0008 24.8359 32.0008 15.9998C32.0008 7.16338 24.8369 0 16.0006 0ZM16.0494 23.5483V23.5481H15.9517H9.11726C9.11726 18.5501 13.5068 18.5512 14.4809 17.2443L14.5924 16.6484C13.2239 15.9548 12.2578 14.2827 12.2578 12.3271C12.2578 9.7506 13.9337 7.66162 16.0006 7.66162C18.0675 7.66162 19.7435 9.7506 19.7435 12.3271C19.7435 14.2661 18.7946 15.9277 17.4443 16.6323L17.5712 17.3095C18.6399 18.553 22.8835 18.6341 22.8835 23.5483H16.0494V23.5483Z" fill="white"/>
</g>
<defs>
<clipPath id="clip0">
<rect width="32" height="32" fill="white"/>
</clipPath>
</defs>
</svg>
