<svg width="67" height="67" viewBox="0 0 67 67" fill="none" xmlns="http://www.w3.org/2000/svg">
<path d="M39.6899 35.4453H37.8499V33.605H39.6899V35.4453ZM36.623 35.4453H34.7827V33.605H36.623V35.4453Z" fill="#A5B7E5"/>
<path d="M6.04102 59.2859L27.3199 64.8856V2.0731L6.04102 7.67285V59.2859ZM7.88096 9.09141L25.4796 4.46004V62.4987L7.88096 57.8673V9.09141Z" fill="#A5B7E5"/>
<path d="M20.081 30.2193C18.2833 30.2193 16.8213 31.6821 16.8213 33.4794C16.8213 35.2771 18.2833 36.7394 20.081 36.7394C21.8787 36.7394 23.341 35.2771 23.341 33.4794C23.341 31.6821 21.8787 30.2193 20.081 30.2193V30.2193ZM20.081 34.8991C19.2985 34.8991 18.6616 34.2626 18.6616 33.4794C18.6616 32.6965 19.2985 32.0601 20.081 32.0601C20.8642 32.0601 21.5011 32.6965 21.5011 33.4794C21.5011 34.2626 20.8642 34.8991 20.081 34.8991Z" fill="#A5B7E5"/>
<path d="M38.2681 26.1169H40.108V8.12534H29.7732V9.96568H38.2681V26.1169Z" fill="#A5B7E5"/>
<path d="M38.2681 56.9934H29.7732V58.8338H40.108V43.0091H38.2681V56.9934Z" fill="#A5B7E5"/>
<path d="M60.465 34.563L44.051 22.0909V28.6321H29.7732V30.4725H45.8914V25.8L57.4235 34.563L45.8914 43.326V38.6543H29.7732V40.4942H44.051V47.0358L60.465 34.563Z" fill="#A5B7E5"/>
<path d="M34.2893 26.1169H36.1297V12.1037H29.7732V13.944H34.2893V26.1169Z" fill="#A5B7E5"/>
<path d="M36.1297 43.0091H34.2893V53.0151H29.7732V54.855H36.1297V43.0091Z" fill="#A5B7E5"/>
</svg>
