<svg width="18" height="18" viewBox="0 0 18 18" fill="none" xmlns="http://www.w3.org/2000/svg">
<path d="M8.97012 1.52488H2.24251C1.82988 1.52488 1.49502 1.85978 1.49502 2.27237V15.7275C1.49502 16.1402 1.82992 16.475 2.24251 16.475H8.97012C9.38348 16.475 9.71761 16.8092 9.71761 17.2225C9.71761 17.6359 9.38348 17.9701 8.97012 17.9701H2.24251C1.00614 17.9701 0 16.9639 0 15.7275V2.27241C0 1.03603 1.00614 0.0298942 2.24251 0.0298942H8.97012C9.38348 0.0298942 9.71761 0.364019 9.71761 0.777386C9.71761 1.19075 9.38348 1.52488 8.97012 1.52488Z" fill="white"/>
<path d="M17.7772 9.53222L13.2323 14.0173C12.9393 14.3073 12.4654 14.3036 12.1753 14.0098C11.8853 13.716 11.8883 13.2429 12.1828 12.9528L15.4307 9.74752H6.72747C6.31411 9.74752 5.97998 9.41339 5.97998 9.00003C5.97998 8.58666 6.31411 8.2525 6.72747 8.2525H15.4307L12.1828 5.0472C11.8883 4.75716 11.8861 4.28399 12.1753 3.99022C12.3218 3.84222 12.5147 3.76747 12.7076 3.76747C12.8974 3.76747 13.0873 3.83923 13.2323 3.98277L17.7772 8.46783C17.9192 8.60835 17.9999 8.79974 17.9999 9.00006C17.9999 9.20031 17.9199 9.39093 17.7772 9.53222Z" fill="white"/>
</svg>
